^C:\USERS\DANIELLE\DESKTOP\MY P2P PROJECT MAGSHIMIM\P2P-PROJECT-MASTER\CLIENT_SERVER\CLIENT_SERVER\CONNECTCLIENT.CPP|C:\USERS\DANIELLE\DESKTOP\MY P2P PROJECT MAGSHIMIM\P2P-PROJECT-MASTER\CLIENT_SERVER\CLIENT_SERVER\CONNECTSERVER.CPP|C:\USERS\DANIELLE\DESKTOP\MY P2P PROJECT MAGSHIMIM\P2P-PROJECT-MASTER\CLIENT_SERVER\CLIENT_SERVER\COORDINATION.CPP|C:\USERS\DANIELLE\DESKTOP\MY P2P PROJECT MAGSHIMIM\P2P-PROJECT-MASTER\CLIENT_SERVER\CLIENT_SERVER\MAIN.CPP|C:\USERS\DANIELLE\DESKTOP\MY P2P PROJECT MAGSHIMIM\P2P-PROJECT-MASTER\CLIENT_SERVER\CLIENT_SERVER\P2P.CPP
C:\USERS\DANIELLE\DESKTOP\MY P2P PROJECT MAGSHIMIM\P2P-PROJECT-MASTER\CLIENT_SERVER\CLIENT_SERVER\DEBUG\CLIENT_SERVER\VC120.PDB
C:\USERS\DANIELLE\DESKTOP\MY P2P PROJECT MAGSHIMIM\P2P-PROJECT-MASTER\CLIENT_SERVER\CLIENT_SERVER\DEBUG\CLIENT_SERVER\VC120.IDB
C:\USERS\DANIELLE\DESKTOP\MY P2P PROJECT MAGSHIMIM\P2P-PROJECT-MASTER\CLIENT_SERVER\CLIENT_SERVER\DEBUG\CLIENT_SERVER\CONNECTCLIENT.OBJ
C:\USERS\DANIELLE\DESKTOP\MY P2P PROJECT MAGSHIMIM\P2P-PROJECT-MASTER\CLIENT_SERVER\CLIENT_SERVER\DEBUG\CLIENT_SERVER\CONNECTSERVER.OBJ
C:\USERS\DANIELLE\DESKTOP\MY P2P PROJECT MAGSHIMIM\P2P-PROJECT-MASTER\CLIENT_SERVER\CLIENT_SERVER\DEBUG\CLIENT_SERVER\MAIN.OBJ
C:\USERS\DANIELLE\DESKTOP\MY P2P PROJECT MAGSHIMIM\P2P-PROJECT-MASTER\CLIENT_SERVER\CLIENT_SERVER\DEBUG\CLIENT_SERVER\P2P.OBJ
C:\USERS\DANIELLE\DESKTOP\MY P2P PROJECT MAGSHIMIM\P2P-PROJECT-MASTER\CLIENT_SERVER\CLIENT_SERVER\DEBUG\CLIENT_SERVER\COORDINATION.OBJ
^C:\USERS\DANIELLE\DESKTOP\MY P2P PROJECT MAGSHIMIM\P2P-PROJECT-MASTER\CLIENT_SERVER\CLIENT_SERVER\CONNECTCLIENT.CPP
C:\USERS\DANIELLE\DESKTOP\MY P2P PROJECT MAGSHIMIM\P2P-PROJECT-MASTER\CLIENT_SERVER\CLIENT_SERVER\DEBUG\CLIENT_SERVER\VC120.PDB
^C:\USERS\DANIELLE\DESKTOP\MY P2P PROJECT MAGSHIMIM\P2P-PROJECT-MASTER\CLIENT_SERVER\CLIENT_SERVER\CONNECTSERVER.CPP
C:\USERS\DANIELLE\DESKTOP\MY P2P PROJECT MAGSHIMIM\P2P-PROJECT-MASTER\CLIENT_SERVER\CLIENT_SERVER\DEBUG\CLIENT_SERVER\VC120.PDB
C:\USERS\DANIELLE\DESKTOP\MY P2P PROJECT MAGSHIMIM\P2P-PROJECT-MASTER\CLIENT_SERVER\CLIENT_SERVER\DEBUG\CLIENT_SERVER\VC120.IDB
C:\USERS\DANIELLE\DESKTOP\MY P2P PROJECT MAGSHIMIM\P2P-PROJECT-MASTER\CLIENT_SERVER\CLIENT_SERVER\DEBUG\CLIENT_SERVER\CONNECTSERVER.OBJ
^C:\USERS\DANIELLE\DESKTOP\MY P2P PROJECT MAGSHIMIM\P2P-PROJECT-MASTER\CLIENT_SERVER\CLIENT_SERVER\MAIN.CPP
C:\USERS\DANIELLE\DESKTOP\MY P2P PROJECT MAGSHIMIM\P2P-PROJECT-MASTER\CLIENT_SERVER\CLIENT_SERVER\DEBUG\CLIENT_SERVER\VC120.PDB
^C:\USERS\DANIELLE\DESKTOP\MY P2P PROJECT MAGSHIMIM\P2P-PROJECT-MASTER\CLIENT_SERVER\CLIENT_SERVER\P2P.CPP
C:\USERS\DANIELLE\DESKTOP\MY P2P PROJECT MAGSHIMIM\P2P-PROJECT-MASTER\CLIENT_SERVER\CLIENT_SERVER\DEBUG\CLIENT_SERVER\VC120.PDB
^C:\USERS\DANIELLE\DESKTOP\MY P2P PROJECT MAGSHIMIM\P2P-PROJECT-MASTER\CLIENT_SERVER\CLIENT_SERVER\COORDINATION.CPP
C:\USERS\DANIELLE\DESKTOP\MY P2P PROJECT MAGSHIMIM\P2P-PROJECT-MASTER\CLIENT_SERVER\CLIENT_SERVER\DEBUG\CLIENT_SERVER\VC120.PDB
^C:\USERS\DANIELLE\DESKTOP\MY P2P PROJECT MAGSHIMIM\P2P-PROJECT-MASTER\CLIENT_SERVER\CLIENT_SERVER\CONNECTSERVER.CPP|C:\USERS\DANIELLE\DESKTOP\MY P2P PROJECT MAGSHIMIM\P2P-PROJECT-MASTER\CLIENT_SERVER\CLIENT_SERVER\MAIN.CPP
C:\USERS\DANIELLE\DESKTOP\MY P2P PROJECT MAGSHIMIM\P2P-PROJECT-MASTER\CLIENT_SERVER\CLIENT_SERVER\DEBUG\CLIENT_SERVER\VC120.PDB
C:\USERS\DANIELLE\DESKTOP\MY P2P PROJECT MAGSHIMIM\P2P-PROJECT-MASTER\CLIENT_SERVER\CLIENT_SERVER\DEBUG\CLIENT_SERVER\VC120.IDB
C:\USERS\DANIELLE\DESKTOP\MY P2P PROJECT MAGSHIMIM\P2P-PROJECT-MASTER\CLIENT_SERVER\CLIENT_SERVER\DEBUG\CLIENT_SERVER\CONNECTSERVER.OBJ
C:\USERS\DANIELLE\DESKTOP\MY P2P PROJECT MAGSHIMIM\P2P-PROJECT-MASTER\CLIENT_SERVER\CLIENT_SERVER\DEBUG\CLIENT_SERVER\MAIN.OBJ
^C:\USERS\DANIELLE\DESKTOP\MY P2P PROJECT MAGSHIMIM\P2P-PROJECT-MASTER\CLIENT_SERVER\CLIENT_SERVER\CONNECTCLIENT.CPP|C:\USERS\DANIELLE\DESKTOP\MY P2P PROJECT MAGSHIMIM\P2P-PROJECT-MASTER\CLIENT_SERVER\CLIENT_SERVER\CONNECTSERVER.CPP|C:\USERS\DANIELLE\DESKTOP\MY P2P PROJECT MAGSHIMIM\P2P-PROJECT-MASTER\CLIENT_SERVER\CLIENT_SERVER\MAIN.CPP
C:\USERS\DANIELLE\DESKTOP\MY P2P PROJECT MAGSHIMIM\P2P-PROJECT-MASTER\CLIENT_SERVER\CLIENT_SERVER\DEBUG\CLIENT_SERVER\VC120.PDB
C:\USERS\DANIELLE\DESKTOP\MY P2P PROJECT MAGSHIMIM\P2P-PROJECT-MASTER\CLIENT_SERVER\CLIENT_SERVER\DEBUG\CLIENT_SERVER\VC120.IDB
C:\USERS\DANIELLE\DESKTOP\MY P2P PROJECT MAGSHIMIM\P2P-PROJECT-MASTER\CLIENT_SERVER\CLIENT_SERVER\DEBUG\CLIENT_SERVER\CONNECTCLIENT.OBJ
C:\USERS\DANIELLE\DESKTOP\MY P2P PROJECT MAGSHIMIM\P2P-PROJECT-MASTER\CLIENT_SERVER\CLIENT_SERVER\DEBUG\CLIENT_SERVER\CONNECTSERVER.OBJ
^C:\USERS\DANIELLE\DESKTOP\MY P2P PROJECT MAGSHIMIM\P2P-PROJECT-MASTER\CLIENT_SERVER\CLIENT_SERVER\CONNECTCLIENT.CPP|C:\USERS\DANIELLE\DESKTOP\MY P2P PROJECT MAGSHIMIM\P2P-PROJECT-MASTER\CLIENT_SERVER\CLIENT_SERVER\CONNECTSERVER.CPP|C:\USERS\DANIELLE\DESKTOP\MY P2P PROJECT MAGSHIMIM\P2P-PROJECT-MASTER\CLIENT_SERVER\CLIENT_SERVER\MAIN.CPP|C:\USERS\DANIELLE\DESKTOP\MY P2P PROJECT MAGSHIMIM\P2P-PROJECT-MASTER\CLIENT_SERVER\CLIENT_SERVER\P2P.CPP
C:\USERS\DANIELLE\DESKTOP\MY P2P PROJECT MAGSHIMIM\P2P-PROJECT-MASTER\CLIENT_SERVER\CLIENT_SERVER\DEBUG\CLIENT_SERVER\VC120.PDB
C:\USERS\DANIELLE\DESKTOP\MY P2P PROJECT MAGSHIMIM\P2P-PROJECT-MASTER\CLIENT_SERVER\CLIENT_SERVER\DEBUG\CLIENT_SERVER\VC120.IDB
C:\USERS\DANIELLE\DESKTOP\MY P2P PROJECT MAGSHIMIM\P2P-PROJECT-MASTER\CLIENT_SERVER\CLIENT_SERVER\DEBUG\CLIENT_SERVER\CONNECTCLIENT.OBJ
C:\USERS\DANIELLE\DESKTOP\MY P2P PROJECT MAGSHIMIM\P2P-PROJECT-MASTER\CLIENT_SERVER\CLIENT_SERVER\DEBUG\CLIENT_SERVER\P2P.OBJ
C:\USERS\DANIELLE\DESKTOP\MY P2P PROJECT MAGSHIMIM\P2P-PROJECT-MASTER\CLIENT_SERVER\CLIENT_SERVER\DEBUG\CLIENT_SERVER\MAIN.OBJ
C:\USERS\DANIELLE\DESKTOP\MY P2P PROJECT MAGSHIMIM\P2P-PROJECT-MASTER\CLIENT_SERVER\CLIENT_SERVER\DEBUG\CLIENT_SERVER\CONNECTSERVER.OBJ
