^C:\USERS\DANIELLE\DESKTOP\MY P2P PROJECT MAGSHIMIM\P2P-PROJECT-MASTER\CLIENT_SERVER\CLIENT_SERVER\DEBUG\CLIENT_SERVER\CONNECTCLIENT.OBJ|C:\USERS\DANIELLE\DESKTOP\MY P2P PROJECT MAGSHIMIM\P2P-PROJECT-MASTER\CLIENT_SERVER\CLIENT_SERVER\DEBUG\CLIENT_SERVER\CONNECTSERVER.OBJ|C:\USERS\DANIELLE\DESKTOP\MY P2P PROJECT MAGSHIMIM\P2P-PROJECT-MASTER\CLIENT_SERVER\CLIENT_SERVER\DEBUG\CLIENT_SERVER\COORDINATION.OBJ|C:\USERS\DANIELLE\DESKTOP\MY P2P PROJECT MAGSHIMIM\P2P-PROJECT-MASTER\CLIENT_SERVER\CLIENT_SERVER\DEBUG\CLIENT_SERVER\MAIN.OBJ|C:\USERS\DANIELLE\DESKTOP\MY P2P PROJECT MAGSHIMIM\P2P-PROJECT-MASTER\CLIENT_SERVER\CLIENT_SERVER\DEBUG\CLIENT_SERVER\P2P.OBJ
C:\USERS\DANIELLE\DESKTOP\MY P2P PROJECT MAGSHIMIM\P2P-PROJECT-MASTER\CLIENT_SERVER\DEBUG\CLIENT_SERVER.ILK
C:\USERS\DANIELLE\DESKTOP\MY P2P PROJECT MAGSHIMIM\P2P-PROJECT-MASTER\CLIENT_SERVER\DEBUG\CLIENT_SERVER.EXE
C:\USERS\DANIELLE\DESKTOP\MY P2P PROJECT MAGSHIMIM\P2P-PROJECT-MASTER\CLIENT_SERVER\DEBUG\CLIENT_SERVER.PDB
